^D:\FREE HOURS\2018\NOVEMBER\DAY06\GENETICALGORITHM\GENETICALGORITHM\MAIN.CPP
/c /Zi /nologo /W3 /WX- /diagnostics:classic /sdl /O2 /Oi /Oy- /GL /D _MBCS /Gm- /EHsc /MD /GS /Gy /fp:precise /permissive- /Zc:wchar_t /Zc:forScope /Zc:inline /Fo"RELEASE\\" /Fd"RELEASE\VC141.PDB" /Gd /TP /analyze- /FC D:\FREE HOURS\2018\NOVEMBER\DAY06\GENETICALGORITHM\GENETICALGORITHM\MAIN.CPP
^D:\HW\AI\DAY06\GENETICALGORITHM\GENETICALGORITHM\MAIN.CPP
/c /Zi /nologo /W3 /WX- /diagnostics:classic /sdl /Od /Oi /Oy- /GL /D _MBCS /Gm- /EHsc /MD /GS /Gy /fp:precise /permissive- /Zc:wchar_t /Zc:forScope /Zc:inline /Fo"RELEASE\\" /Fd"RELEASE\VC141.PDB" /Gd /TP /analyze- /FC D:\HW\AI\DAY06\GENETICALGORITHM\GENETICALGORITHM\MAIN.CPP
^D:\HW\AI\DAY06\GENETICALGORITHM\GENETICALGORITHM\SUDOKU.CPP
/c /Zi /nologo /W3 /WX- /diagnostics:classic /sdl /Od /Oi /Oy- /GL /D _MBCS /Gm- /EHsc /MD /GS /Gy /fp:precise /permissive- /Zc:wchar_t /Zc:forScope /Zc:inline /Fo"RELEASE\\" /Fd"RELEASE\VC141.PDB" /Gd /TP /analyze- /FC D:\HW\AI\DAY06\GENETICALGORITHM\GENETICALGORITHM\SUDOKU.CPP
^D:\HW\AI\DAY06\GENETICALGORITHM\GENETICALGORITHM\GA.CPP
/c /Zi /nologo /W3 /WX- /diagnostics:classic /sdl /Od /Oi /Oy- /GL /D _MBCS /Gm- /EHsc /MD /GS /Gy /fp:precise /permissive- /Zc:wchar_t /Zc:forScope /Zc:inline /Fo"RELEASE\\" /Fd"RELEASE\VC141.PDB" /Gd /TP /analyze- /FC D:\HW\AI\DAY06\GENETICALGORITHM\GENETICALGORITHM\GA.CPP
